{
  "fixturesFolder": "fixtures",
  "integrationFolder": "integration",
  "pluginsFile": "plugins/index.js",
  "supportFile": "support/index.js",
  "screenshotsFolder": "screenshots",
  "videosFolder": "videos",
  "chromeWebSecurity": false
}
