{
  "baseUrl": "https://dev.example.com",
  "env": {
    "fakeEmail": "fake@email.com",
    "fakePassword": "FakePass123",
    "emailF": "e2e-client-f@example.com",
    "emailU": "e2e-client-u@example.com",
    "emailI": "e2e-client-i@example.com",
    "password": "email@email.com",
    "passwordF": "скороНГ",
    "passwordU": "email@email.com",
    "passwordI": "#@karaPuz123",
    "fbPassword": "Pstest2019",
    "serviceId": "10248",
    "accountId": "441495",
    "graphqlUrl": "https://example.com/graphql",
    "authGraphQlUrl": "https://auth-expample.com/graphql",
    "connectCidCookie": "connect.sid-dev",
    "enpointPublicUrl": "object.example.cloud.tech"
  }
}
